module github.com/scjtqs/jd_cookie

go 1.16

require (
	github.com/gin-contrib/sessions v0.0.3
	github.com/gin-gonic/gin v1.7.2
	github.com/go-sql-driver/mysql v1.6.0
	github.com/go-xorm/xorm v0.7.9
	github.com/gobuffalo/logger v1.0.4 // indirect
	github.com/gobuffalo/packr/v2 v2.8.1
	github.com/google/uuid v1.2.0
	github.com/guonaihong/gout v0.2.0
	github.com/jonboulle/clockwork v0.2.2 // indirect
	github.com/json-iterator/go v1.1.11 // indirect
	github.com/karrick/godirwalk v1.16.1 // indirect
	github.com/lestrrat-go/file-rotatelogs v2.4.0+incompatible
	github.com/lestrrat-go/strftime v1.0.4 // indirect
	github.com/modern-go/concurrent v0.0.0-20180306012644-bacd9c7ef1dd // indirect
	github.com/modern-go/reflect2 v1.0.1 // indirect
	github.com/quasoft/memstore v0.0.0-20191010062613-2bce066d2b0b // indirect
	github.com/rogpeppe/go-internal v1.8.0 // indirect
	github.com/sirupsen/logrus v1.8.1
	github.com/t-tomalak/logrus-easy-formatter v0.0.0-20190827215021-c074f06c5816
	github.com/tidwall/gjson v1.8.0
	github.com/vmihailenco/msgpack v4.0.4+incompatible
	go.uber.org/dig v1.11.0
	golang.org/x/crypto v0.0.0-20210616213533-5ff15b29337e // indirect
	golang.org/x/net v0.0.0-20210405180319-a5a99cb37ef4 // indirect
	golang.org/x/sync v0.0.0-20210220032951-036812b2e83c // indirect
	golang.org/x/sys v0.0.0-20210616094352-59db8d763f22 // indirect
	golang.org/x/term v0.0.0-20210615171337-6886f2dfbf5b // indirect
	golang.org/x/xerrors v0.0.0-20200804184101-5ec99f83aff1 // indirect
	gopkg.in/yaml.v2 v2.4.0 // indirect
)
